<svg width="12" height="16" viewBox="0 0 11 16" fill="none" xmlns="http://www.w3.org/2000/svg">
<path d="M6.58755 8.22548C6.58755 8.17714 6.54958 8.13916 6.50124 8.13916H4.8578C4.80946 8.13916 4.77148 8.17714 4.77148 8.22548V9.07136C4.77148 9.1197 4.80946 9.15768 4.8578 9.15768H6.50124C6.54958 9.15768 6.58755 9.1197 6.58755 9.07136V8.22548Z" fill="#F8F8F8"/>
<path d="M0.180176 5.39779C0.180176 7.04814 1.52324 8.38775 3.17013 8.38775H4.25425V8.22203C4.25425 7.89057 4.52701 7.61782 4.85846 7.61782H6.5019C6.83335 7.61782 7.1061 7.89057 7.1061 8.22203V8.38775H8.19022C9.84057 8.38775 11.1802 7.04469 11.1802 5.39779C11.1802 3.7509 9.84057 2.40784 8.19022 2.40784H3.17013C1.51979 2.40784 0.180176 3.7509 0.180176 5.39779Z" fill="#F8F8F8"/>
<path d="M8.19022 8.90917H7.1061V9.07489C7.1061 9.40634 6.83335 9.6791 6.5019 9.6791H4.85846C4.52701 9.6791 4.25425 9.40634 4.25425 9.07489V8.90917H3.17013C1.90648 8.90917 0.798192 8.23936 0.180176 7.23465V13.0903C0.180176 14.4506 1.28501 15.5554 2.64534 15.5554H8.71502C10.0753 15.5554 11.1802 14.4506 11.1802 13.0903V7.2312C10.5622 8.23591 9.45387 8.90917 8.19022 8.90917ZM9.81294 12.4032C9.81294 13.7048 8.97051 14.7613 7.93127 14.7613H3.42908C2.38984 14.7613 1.54741 13.7048 1.54741 12.4032V10.5457C1.54741 10.2246 1.8098 9.95876 2.13435 9.95876H9.226C9.54709 9.95876 9.81294 10.2212 9.81294 10.5457V12.4032Z" fill="#F8F8F8"/>
<path d="M9.22613 10.48H2.13448C2.0965 10.48 2.06543 10.5111 2.06543 10.549V12.4065C2.06543 13.4216 2.67654 14.2468 3.42921 14.2468H7.92795C8.68062 14.2468 9.29173 13.4216 9.29173 12.4065V10.549C9.29519 10.5076 9.26411 10.48 9.22613 10.48Z" fill="#F8F8F8"/>
<path d="M4.16096 1.89004V1.4274C4.16096 1.2375 4.39228 1.07868 4.66849 1.07868H6.69517C6.97138 1.07868 7.2027 1.2375 7.2027 1.4274V1.89004H7.72059V1.4274C7.72059 0.947483 7.2614 0.560791 6.69517 0.560791H4.66849C4.10226 0.560791 3.64307 0.950936 3.64307 1.4274V1.89004H4.16096Z" fill="#F8F8F8"/>
<path d="M10.0064 2.39751V0.360468C10.0064 0.180933 9.86136 0.0324707 9.67837 0.0324707H8.58044C8.4009 0.0324707 8.25244 0.17748 8.25244 0.360468V1.88997C8.89463 1.90378 9.49193 2.08677 10.0064 2.39751Z" fill="#F8F8F8"/>
<path d="M3.10796 1.89001V0.35705C3.10796 0.177515 2.96295 0.0290527 2.77996 0.0290527H1.67858C1.49905 0.0290527 1.35059 0.174062 1.35059 0.35705V2.39409C1.86848 2.08681 2.46578 1.90382 3.10796 1.89001Z" fill="#F8F8F8"/>
</svg>
