<svg width="12" height="9" xmlns="http://www.w3.org/2000/svg">
    <path id="svg_1" fill="white"
        d="m1.76125,0.05472l-1.76125,0l0,8.83718l1.76125,0l0,-8.83718zm2.00692,0l0,8.83718l3.64269,0c2.76514,0 4.58914,-1.75507 4.58914,-4.41859c0,-2.66352 -1.824,-4.41859 -4.58914,-4.41859l-3.64269,0zm3.62324,1.64725c0.37261,-0.03603 0.74858,0.01096 1.10086,0.13759c0.35228,0.12662 0.67212,0.32973 0.93653,0.59473c0.26441,0.265 0.46681,0.5853 0.5926,0.93786c0.1259,0.35257 0.172,0.72863 0.1352,1.10116c0.0351,0.37177 -0.0121,0.74672 -0.1382,1.0982c-0.12619,0.35148 -0.32823,0.67084 -0.59178,0.93541c-0.26354,0.26456 -0.58214,0.46781 -0.93313,0.59532c-0.35099,0.1275 -0.72575,0.17613 -1.09766,0.14241l-1.86641,0l0,-5.54179l1.86199,-0.00089z" />
</svg>