<svg width="9" height="9" viewBox="0 0 14 13" fill="none" xmlns="http://www.w3.org/2000/svg">
<path fill-rule="evenodd" clip-rule="evenodd" d="M2.37748 1.63619H2.92566V7.23555H2.37748C1.47688 7.23555 0.73291 6.49157 0.73291 5.59098V3.28076C0.73291 2.38016 1.47688 1.63619 2.37748 1.63619ZM3.47385 1.63619H5.9407C11.7358 1.9886 12.9888 -2.24029 12.9888 1.94944V6.96145C12.9888 11.1512 10.0521 7.23555 5.62745 7.23555L7.42864 11.7385C7.93768 12.9524 6.13648 13.6572 5.62745 12.4825L3.51301 7.23555H3.47385V1.63619Z" fill="white"/>
</svg>
